{
  "type": "DATA_STORE",
  "scmStatus": "",
  "name": "CUST7",
  "desc": "",
  "inherited": false,
  "filePath": "",
  "childs": [],
  "dbType": "RDBMS",
  "columns": [
    {
      "name": "X_MODEL_STATE",
      "dataType": "STRING",
      "length": 20,
      "pkColumn": false,
      "mandatory": false
    },
    {
      "name": "X_MODEL_STATUS",
      "dataType": "STRING",
      "length": 20,
      "pkColumn": false,
      "mandatory": false
    },
    {
      "name": "CUST_ID",
      "dataType": "STRING",
      "pkColumn": true,
      "mandatory": false
    },
    {
      "name": "CUST_NAME",
      "dataType": "STRING",
      "pkColumn": false,
      "mandatory": false
    }
  ],
  "constraints": [],
  "unique": true,
  "CI": true,
  "xState": "",
  "childsMap": {},
  "dstype": "RDBMS",
  "uuid": "Cust7__DATA_MANAGEMENT__XDM_ENTITY_MAPPINGS__Cust7__XdmCust7"
}