{
  "xState" : "MODIFIED",
  "__desc__" : "KRISNA",
  "desc" : "REMOTE1526",
  "childs" : [ {
    "type" : "NODE",
    "superType" : "",
    "superName" : "",
    "name" : "workDet",
    "desc" : "newCompositeAttribute",
    "inherited" : false,
    "properties" : {
      "xState" : "ADDED"
    },
    "relationType" : "ONETOMANY",
    "childs" : [ {
      "type" : "ELEMENT",
      "superType" : "",
      "superName" : "",
      "name" : "workId",
      "desc" : "newSimpleAttribute",
      "amendable" : false,
      "inherited" : false,
      "properties" : {
        "dataType" : "STRING",
        "defaultvalue" : "",
        "minLen" : "",
        "maxLen" : "",
        "strValidationType" : "NONE",
        "pattern" : "",
        "lovId" : "",
        "enumerationid" : "",
        "datacategory" : "",
        "minVal" : "",
        "maxVal" : "",
        "maxDecimals" : "",
        "minDate" : "",
        "maxDate" : "",
        "bindvars" : [ ],
        "returnvars" : [ ],
        "xState" : "ADDED"
      },
      "mandatory" : true,
      "key" : true,
      "xState" : "ADDED"
    }, {
      "type" : "ELEMENT",
      "superType" : "",
      "superName" : "",
      "name" : "workName",
      "desc" : "newSimpleAttribute",
      "amendable" : true,
      "inherited" : false,
      "properties" : {
        "dataType" : "STRING",
        "defaultvalue" : "",
        "minLen" : "",
        "maxLen" : "",
        "strValidationType" : "NONE",
        "pattern" : "",
        "lovId" : "",
        "enumerationid" : "",
        "datacategory" : "",
        "minVal" : "",
        "maxVal" : "",
        "maxDecimals" : "",
        "minDate" : "",
        "maxDate" : "",
        "bindvars" : [ ],
        "returnvars" : [ ],
        "xState" : "ADDED"
      },
      "xState" : "ADDED"
    },{
      "type" : "ELEMENT",
      "name" : "remoteEml",
      "desc" : "newSimpleAttribute",
      "xState" : "ADDED",
      "inherited" : false,
      "properties" : {
        "dataType" : "STRING",
        "minLen" : "",
        "maxLen" : "",
        "strValidationType" : "NONE",
        "pattern" : "",
        "lovId" : "",
        "enumerationid" : "",
        "datacategory" : "",
        "minVal" : "",
        "maxVal" : "",
        "maxDecimals" : "",
        "minDate" : "",
        "maxDate" : "",
        "bindvars" : [ ],
        "returnvars" : [ ],
        "xState" : "ADDED"
      }
    } ],
    "xState" : "ADDED"
  }, {
    "type" : "NODE",
    "name" : "documents",
    "desc" : "newCompositeAttribute",
    "inherited" : false,
    "properties" : {
      "xState" : "ADDED"
    },
    "childs" : [ {
      "type" : "ELEMENT",
      "superName" : "",
      "name" : "docid",
      "desc" : "newSimpleAttribute",
      "inherited" : false,
      "properties" : {
        "dataType" : "STRING",
        "minLen" : "",
        "maxLen" : "",
        "strValidationType" : "NONE",
        "pattern" : "",
        "lovId" : "",
        "enumerationid" : "",
        "datacategory" : "",
        "minVal" : "",
        "maxVal" : "",
        "maxDecimals" : "",
        "minDate" : "",
        "maxDate" : "",
        "bindvars" : [ ],
        "returnvars" : [ ],
        "xState" : "ADDED"
      },
      "key" : true,
      "xState" : "ADDED"
    }, {
      "type" : "ELEMENT",
      "superName" : "",
      "name" : "docName",
      "desc" : "newSimpleAttribute",
      "inherited" : false,
      "properties" : {
        "dataType" : "STRING",
        "minLen" : "",
        "maxLen" : "",
        "strValidationType" : "NONE",
        "pattern" : "",
        "lovId" : "",
        "enumerationid" : "",
        "datacategory" : "",
        "minVal" : "",
        "maxVal" : "",
        "maxDecimals" : "",
        "minDate" : "",
        "maxDate" : "",
        "bindvars" : [ ],
        "returnvars" : [ ],
        "xState" : "ADDED"
      },
      "xState" : "ADDED"
    } ],
    "relationType" : "ONETOMANY",
    "xState" : "ADDED"
  }, {
    "type" : "ELEMENT",
    "superType" : "",
    "superName" : "",
    "name" : "elmx",
    "desc" : "newSimpleAttribute",
    "amendable" : true,
    "xState" : "ADDED",
    "inherited" : false,
    "properties" : {
      "dataType" : "STRING",
      "defaultvalue" : "",
      "minLen" : "",
      "maxLen" : "",
      "strValidationType" : "NONE",
      "pattern" : "",
      "lovId" : "",
      "enumerationid" : "",
      "datacategory" : "",
      "minVal" : "",
      "maxVal" : "",
      "maxDecimals" : "",
      "minDate" : "",
      "maxDate" : "",
      "bindvars" : [ ],
      "returnvars" : [ ],
      "xState" : "ADDED"
    }
  } ],
  "__timeBound__" : "",
  "timeBound" : false,
  "relations" : [ ],
  "subEntities" : [ ],
  "constraints" : [ ],
  "drvattrs" : [ ],
  "dynattrs" : [ ],
  "services" : [ ]
}
