{
  "name": "Request Model",
  "type": "SERVICE_REQUEST_MODEL",
  "desc": "Request Params",
  "childs": [
    {
      "type": "ELEMENT",
      "superType": "",
      "superName": "",
      "name": "custId",
      "desc": "newSimpleAttribute",
      "amendable": false,
      "xState": "NEW",
      "inherited": false,
      "properties": {
        "dataType": "STRING",
        "defaultvalue": "",
        "minLen": "",
        "maxLen": "",
        "strValidationType": "NONE",
        "pattern": "",
        "lovId": "",
        "enumerationid": "",
        "datacategory": "",
        "minVal": "",
        "maxVal": "",
        "maxDecimals": "",
        "minDate": "",
        "maxDate": "",
        "bindvars": [],
        "returnvars": []
      },
      "mandatory": true,
      "key": true
    },
    {
      "type": "ELEMENT",
      "superType": "",
      "superName": "",
      "name": "custName",
      "desc": "newSimpleAttribute",
      "amendable": true,
      "xState": "NEW",
      "inherited": false,
      "properties": {
        "dataType": "STRING",
        "defaultvalue": "",
        "minLen": "",
        "maxLen": "",
        "strValidationType": "NONE",
        "pattern": "",
        "lovId": "",
        "enumerationid": "",
        "datacategory": "",
        "minVal": "",
        "maxVal": "",
        "maxDecimals": "",
        "minDate": "",
        "maxDate": "",
        "bindvars": [],
        "returnvars": []
      }
    }
  ],
  "properties": {
    "dataType": "STRING",
    "defaultvalue": "",
    "minLen": "",
    "maxLen": "",
    "strValidationType": "NONE",
    "pattern": "",
    "lovId": "",
    "enumerationid": "",
    "datacategory": "",
    "minVal": "",
    "maxVal": "",
    "maxDecimals": "",
    "minDate": "",
    "maxDate": ""
  },
  "relations": [],
  "subEntities": [],
  "superType": "",
  "superName": "",
  "relationType": "ONETOONE"
}